[{
  "first_name": "Joshua",
  "last_name": "Rivera",
  "email": "jrivera0@weibo.com",
  "phone_number": "420-(256)270-9020"
}, {
  "first_name": "Keith",
  "last_name": "Carter",
  "email": "kcarter1@ftc.gov",
  "phone_number": "380-(588)105-0455"
}]